{
    "Servers": {
        "1": {
            "Name": "mojang_api_rust",
            "Group": "Servers",
            "Port": 5432,
            "Username": "mojang_api_rust",
            "Host": "postgres_db",
            "SSLMode": "prefer",
            "MaintenanceDB": "postgres"
        }
    }
}
